EESchema Schematic File Version 4
EELAYER 30 0
EELAYER END
$Descr A4 11693 8268
encoding utf-8
Sheet 1 1
Title "Status LEDs"
Date "2021-06-04"
Rev "1"
Comp "Group3"
Comment1 "Created by: Mincili Nelani NLNCOC001"
Comment2 ""
Comment3 ""
Comment4 ""
$EndDescr
$Comp
L power:GND #PWR0101
U 1 1 60BBA4D2
P 7900 5400
F 0 "#PWR0101" H 7900 5150 50  0001 C CNN
F 1 "GND" H 7905 5227 50  0000 C CNN
F 2 "" H 7900 5400 50  0001 C CNN
F 3 "" H 7900 5400 50  0001 C CNN
	1    7900 5400
	1    0    0    -1  
$EndComp
$Comp
L power:GND #PWR0102
U 1 1 60BBACC7
P 7900 6200
F 0 "#PWR0102" H 7900 5950 50  0001 C CNN
F 1 "GND" H 7905 6027 50  0000 C CNN
F 2 "" H 7900 6200 50  0001 C CNN
F 3 "" H 7900 6200 50  0001 C CNN
	1    7900 6200
	1    0    0    -1  
$EndComp
$Comp
L Device:LED UD1
U 1 1 60BBC4DB
P 7900 5900
F 0 "UD1" V 7939 5782 50  0000 R CNN
F 1 "LED" V 7848 5782 50  0000 R CNN
F 2 "Diode_THT:D_5W_P10.16mm_Horizontal" H 7900 5900 50  0001 C CNN
F 3 "~" H 7900 5900 50  0001 C CNN
	1    7900 5900
	0    -1   -1   0   
$EndComp
$Comp
L Device:R R1
U 1 1 60BBF289
P 7900 2750
F 0 "R1" H 7830 2704 50  0000 R CNN
F 1 "43k" H 7830 2795 50  0000 R CNN
F 2 "Resistor_THT:R_Axial_DIN0411_L9.9mm_D3.6mm_P25.40mm_Horizontal" V 7830 2750 50  0001 C CNN
F 3 "~" H 7900 2750 50  0001 C CNN
	1    7900 2750
	-1   0    0    1   
$EndComp
$Comp
L Device:R R2
U 1 1 60BBFC64
P 7900 3800
F 0 "R2" H 7830 3754 50  0000 R CNN
F 1 "36k" H 7830 3845 50  0000 R CNN
F 2 "Resistor_THT:R_Axial_DIN0411_L9.9mm_D3.6mm_P25.40mm_Horizontal" V 7830 3800 50  0001 C CNN
F 3 "~" H 7900 3800 50  0001 C CNN
	1    7900 3800
	-1   0    0    1   
$EndComp
$Comp
L Device:R R3
U 1 1 60BC0007
P 7900 4950
F 0 "R3" H 7830 4904 50  0000 R CNN
F 1 "102k" H 7830 4995 50  0000 R CNN
F 2 "Resistor_THT:R_Axial_DIN0411_L9.9mm_D3.6mm_P25.40mm_Horizontal" V 7830 4950 50  0001 C CNN
F 3 "~" H 7900 4950 50  0001 C CNN
	1    7900 4950
	-1   0    0    1   
$EndComp
$Comp
L Device:R R5
U 1 1 60BC08DE
P 7300 5750
F 0 "R5" V 7093 5750 50  0000 C CNN
F 1 "220" V 7184 5750 50  0000 C CNN
F 2 "Resistor_THT:R_Axial_DIN0411_L9.9mm_D3.6mm_P25.40mm_Horizontal" V 7230 5750 50  0001 C CNN
F 3 "~" H 7300 5750 50  0001 C CNN
	1    7300 5750
	0    1    1    0   
$EndComp
$Comp
L Temperature~Sensor:LTC2996C U2
U 1 1 60BDB402
P 5400 3400
F 0 "U2" H 5400 3800 50  0000 C CNN
F 1 "LTC2996C" H 5400 3400 50  0000 C CNN
F 2 "Package_DIP:DIP-10_W8.89mm_SMDSocket_LongPads" H 5400 3350 50  0001 C CNN
F 3 "" H 5400 3350 50  0001 C CNN
	1    5400 3400
	1    0    0    -1  
$EndComp
$Comp
L power:GND #PWR0103
U 1 1 60BB8D5A
P 3900 5900
F 0 "#PWR0103" H 3900 5650 50  0001 C CNN
F 1 "GND" H 3905 5727 50  0000 C CNN
F 2 "" H 3900 5900 50  0001 C CNN
F 3 "" H 3900 5900 50  0001 C CNN
	1    3900 5900
	1    0    0    -1  
$EndComp
$Comp
L Device:R R4
U 1 1 60BC0D83
P 7050 900
F 0 "R4" V 6843 900 50  0000 C CNN
F 1 "220" V 6934 900 50  0000 C CNN
F 2 "Resistor_THT:R_Axial_DIN0411_L9.9mm_D3.6mm_P25.40mm_Horizontal" V 6980 900 50  0001 C CNN
F 3 "~" H 7050 900 50  0001 C CNN
	1    7050 900 
	0    1    1    0   
$EndComp
$Comp
L Device:R R6
U 1 1 60BBE47E
P 2850 1100
F 0 "R6" V 2643 1100 50  0000 C CNN
F 1 "220" V 2734 1100 50  0000 C CNN
F 2 "Resistor_THT:R_Axial_DIN0411_L9.9mm_D3.6mm_P25.40mm_Horizontal" V 2780 1100 50  0001 C CNN
F 3 "~" H 2850 1100 50  0001 C CNN
	1    2850 1100
	0    1    1    0   
$EndComp
$Comp
L Device:LED ID1
U 1 1 60BBCE0B
P 3250 1100
F 0 "ID1" H 3243 845 50  0000 C CNN
F 1 "LED" H 3243 936 50  0000 C CNN
F 2 "Diode_THT:D_5W_P10.16mm_Horizontal" H 3250 1100 50  0001 C CNN
F 3 "~" H 3250 1100 50  0001 C CNN
	1    3250 1100
	-1   0    0    1   
$EndComp
$Comp
L Device:LED OD1
U 1 1 60BBB6D9
P 7900 1050
F 0 "OD1" V 7939 932 50  0000 R CNN
F 1 "LED" V 7848 932 50  0000 R CNN
F 2 "Diode_THT:D_5W_P10.16mm_Horizontal" H 7900 1050 50  0001 C CNN
F 3 "~" H 7900 1050 50  0001 C CNN
	1    7900 1050
	0    -1   -1   0   
$EndComp
$Comp
L power:GND #PWR0104
U 1 1 60BB9B25
P 7900 1500
F 0 "#PWR0104" H 7900 1250 50  0001 C CNN
F 1 "GND" H 7905 1327 50  0000 C CNN
F 2 "" H 7900 1500 50  0001 C CNN
F 3 "" H 7900 1500 50  0001 C CNN
	1    7900 1500
	1    0    0    -1  
$EndComp
$Comp
L Transistor_BJT:2N3904 Q1
U 1 1 60BB7F4A
P 2150 4400
F 0 "Q1" H 2340 4446 50  0000 L CNN
F 1 "2N3904" H 2340 4355 50  0000 L CNN
F 2 "Package_TO_SOT_THT:TO-92_Inline" H 2350 4325 50  0001 L CIN
F 3 "https://www.onsemi.com/pub/Collateral/2N3903-D.PDF" H 2150 4400 50  0001 L CNN
	1    2150 4400
	1    0    0    -1  
$EndComp
$Comp
L Device:C C1
U 1 1 60BB72A5
P 2750 4400
F 0 "C1" H 2865 4446 50  0000 L CNN
F 1 "470p" H 2865 4355 50  0000 L CNN
F 2 "Capacitor_THT:CP_Radial_D10.0mm_P2.50mm" H 2788 4250 50  0001 C CNN
F 3 "~" H 2750 4400 50  0001 C CNN
	1    2750 4400
	1    0    0    -1  
$EndComp
Wire Wire Line
	3000 1100 3100 1100
Wire Wire Line
	3400 1100 3900 1100
Wire Wire Line
	3900 1100 3900 1300
Wire Wire Line
	6900 900  6900 1300
Wire Wire Line
	7200 900  7900 900 
Wire Wire Line
	7900 1200 7900 1350
Wire Wire Line
	7500 2400 7900 2400
Wire Wire Line
	7900 2400 7900 2600
Wire Wire Line
	7500 3400 7900 3400
Wire Wire Line
	7900 3400 7900 3650
Wire Wire Line
	7500 4400 7900 4400
Wire Wire Line
	7900 4400 7900 4800
Wire Wire Line
	7900 5100 7900 5400
Wire Wire Line
	6900 5500 6900 5750
Wire Wire Line
	6900 5750 7150 5750
Wire Wire Line
	7450 5750 7900 5750
Wire Wire Line
	7900 6050 7900 6200
Wire Wire Line
	3900 5500 3900 5900
Wire Wire Line
	3300 3900 2750 3900
Wire Wire Line
	2250 3900 2250 4200
Wire Wire Line
	2250 4600 2250 4900
Wire Wire Line
	2250 4900 2750 4900
Wire Wire Line
	2750 4550 2750 4900
Connection ~ 2750 4900
Wire Wire Line
	2750 4900 3300 4900
Wire Wire Line
	2750 4250 2750 3900
Connection ~ 2750 3900
Wire Wire Line
	2750 3900 2250 3900
Text GLabel 3300 2400 0    50   Output ~ 0
OUT
Text HLabel 2700 1100 0    50   Input ~ 0
VCCin
Wire Wire Line
	1950 4400 1950 3900
Wire Wire Line
	1950 3900 2250 3900
Connection ~ 2250 3900
Wire Wire Line
	7900 2900 7900 3400
Connection ~ 7900 3400
Wire Wire Line
	7900 3950 7900 4400
Connection ~ 7900 4400
$Comp
L Device:Buzzer BOT1
U 1 1 60BF0892
P 8400 1100
F 0 "BOT1" H 8552 1129 50  0000 L CNN
F 1 "Buzzer" H 8552 1038 50  0000 L CNN
F 2 "Buzzer_Beeper:Buzzer_12x9.5RM7.6" V 8375 1200 50  0001 C CNN
F 3 "~" V 8375 1200 50  0001 C CNN
	1    8400 1100
	1    0    0    -1  
$EndComp
$Comp
L Device:Buzzer BUT1
U 1 1 60BF0E55
P 8400 5950
F 0 "BUT1" H 8552 5979 50  0000 L CNN
F 1 "Buzzer" H 8552 5888 50  0000 L CNN
F 2 "Buzzer_Beeper:Buzzer_12x9.5RM7.6" V 8375 6050 50  0001 C CNN
F 3 "~" V 8375 6050 50  0001 C CNN
	1    8400 5950
	1    0    0    -1  
$EndComp
Wire Wire Line
	7900 5750 8300 5750
Wire Wire Line
	8300 5750 8300 5850
Connection ~ 7900 5750
Wire Wire Line
	8300 6050 8300 6200
Wire Wire Line
	8300 6200 7900 6200
Connection ~ 7900 6200
Wire Wire Line
	7900 900  8300 900 
Wire Wire Line
	8300 900  8300 1000
Connection ~ 7900 900 
Wire Wire Line
	8300 1200 8300 1350
Wire Wire Line
	8300 1350 7900 1350
Connection ~ 7900 1350
Wire Wire Line
	7900 1350 7900 1500
$EndSCHEMATC
